[gd_scene load_steps=2 format=3 uid="uid://ce61if6221bt3"]

[ext_resource type="Script" path="res://car/script/camera.gd" id="1"]

[node name="center" type="Node3D"]
transform = Transform3D(1, 0, 0, 0, 0.97437, 0.224951, 0, -0.224951, 0.97437, 0, 1.15, 4.4)
script = ExtResource("1")

[node name="CenterViewport" type="SubViewport" parent="."]
audio_listener_enable_3d = true
physics_object_picking = true
size = Vector2i(1920, 1080)

[node name="Camera" type="Camera3D" parent="CenterViewport"]
transform = Transform3D(1, 0, 0, 0, 0.97437, 0.224951, 0, -0.224951, 0.97437, 0, 1.81329, 3.93898)
current = true
far = 1e+09

[node name="CameraHandlers" type="Node3D" parent="."]
transform = Transform3D(1, 0, 0, 0, 1, 0, 0, 0, 1, 0, 0.75, -0.3)

[node name="CenterCameraTransform" type="RemoteTransform3D" parent="CameraHandlers"]
remote_path = NodePath("../../CenterViewport/Camera")
